{
 "SoundBanksInfo": {
  "Platform": "Windows",
  "BasePlatform": "Windows",
  "SchemaVersion": "12",
  "SoundbankVersion": "135",
  "RootPaths": {
   "ProjectRoot": "D:\\Documents\\- ENJMIN\\- M2\\Projets\\TwinSouls\\Sessions Wwise\\WwiseUnrealExperimentation\\",
   "SourceFilesRoot": "D:\\Documents\\- ENJMIN\\- M2\\Projets\\TwinSouls\\Sessions Wwise\\WwiseUnrealExperimentation\\.cache\\Windows\\",
   "SoundBanksRoot": "D:\\Documents\\- ENJMIN\\- M2\\Projets\\TwinSouls\\Sessions Wwise\\WwiseUnrealExperimentation\\GeneratedSoundBanks\\Windows\\",
   "ExternalSourcesInputFile": "",
   "ExternalSourcesOutputRoot": "D:\\Documents\\- ENJMIN\\- M2\\Projets\\TwinSouls\\Sessions Wwise\\WwiseUnrealExperimentation\\GeneratedSoundBanks\\Windows"
  },
  "SoundBanks": [
   {
    "Id": "1615767906",
    "GUID": "{CA130DD4-6606-449B-B581-8043993EDC4E}",
    "Language": "SFX",
    "Hash": "1060835981",
    "ObjectPath": "\\SoundBanks\\TEMPLATE SNB\\MUSIC SNB\\Music_Main",
    "ShortName": "Music_Main",
    "Path": "Music_Main.bnk",
    "IncludedEvents": [
     {
      "Id": "520879986",
      "Name": "Play_Music_FarHorizon",
      "ObjectPath": "\\Events\\TEMPLATE EVENTS\\MUSIC EVENTS\\Play_Music_FarHorizon",
      "GUID": "{CA56602B-FDD1-4FD6-B738-A25070683190}",
      "DurationType": "OneShot",
      "DurationMin": "64.000000",
      "DurationMax": "64.000000",
      "IncludedMemoryFiles": [
       {
        "Id": "992893832",
        "Language": "SFX",
        "ShortName": "Music\\06 Jeremy Soule - Far Horizons.wav",
        "Path": "SFX\\Music\\06 Jeremy Soule - Far Horizons_073B4D0C.wem"
       }
      ]
     }
    ]
   }
  ]
 }
}