{
 "SoundBanksInfo": {
  "Platform": "Windows",
  "BasePlatform": "Windows",
  "SchemaVersion": "12",
  "SoundbankVersion": "135",
  "RootPaths": {
   "ProjectRoot": "D:\\Documents\\- ENJMIN\\- M2\\Projets\\TwinSouls\\Sessions Wwise\\WwiseUnrealExperimentation\\",
   "SourceFilesRoot": "D:\\Documents\\- ENJMIN\\- M2\\Projets\\TwinSouls\\Sessions Wwise\\WwiseUnrealExperimentation\\.cache\\Windows\\",
   "SoundBanksRoot": "D:\\Documents\\- ENJMIN\\- M2\\Projets\\TwinSouls\\Sessions Wwise\\WwiseUnrealExperimentation\\GeneratedSoundBanks\\Windows\\",
   "ExternalSourcesInputFile": "",
   "ExternalSourcesOutputRoot": "D:\\Documents\\- ENJMIN\\- M2\\Projets\\TwinSouls\\Sessions Wwise\\WwiseUnrealExperimentation\\GeneratedSoundBanks\\Windows"
  },
  "SoundBanks": [
   {
    "Id": "1161247679",
    "GUID": "{45373BBF-3BBF-1BBF-BFBF-BFBFBFBFBFBF}",
    "Language": "SFX",
    "Hash": "3679494734",
    "ObjectPath": "\\SoundBanks\\Default Work Unit\\SB_01815E1EF3DD44D392740D3503B1BDE9",
    "ShortName": "SB_01815E1EF3DD44D392740D3503B1BDE9",
    "Path": "SB_01815E1EF3DD44D392740D3503B1BDE9.bnk",
    "IncludedEvents": [
     {
      "Id": "2955293017",
      "Name": "Play_FOL_WaterDrops",
      "ObjectPath": "\\Events\\TEMPLATE EVENTS\\SFX EVENTS\\FOLEYS EVENTS\\Play_FOL_WaterDrops",
      "GUID": "{01815E1E-F3DD-44D3-9274-0D3503B1BDE9}",
      "MaxAttenuation": "5000.000000",
      "DurationType": "Infinite",
      "ExcludedMemoryFiles": [
       {
        "Id": "336994772",
        "Language": "SFX",
        "ShortName": "AMB_LocAmb_Tunnel_Water_003.wav",
        "Path": "SFX\\AMB_LocAmb_Tunnel_Water_003_755F56E2.wem"
       },
       {
        "Id": "441034348",
        "Language": "SFX",
        "ShortName": "AMB_LocAmb_Tunnel_Water_002.wav",
        "Path": "SFX\\AMB_LocAmb_Tunnel_Water_002_755F56E2.wem"
       },
       {
        "Id": "511353520",
        "Language": "SFX",
        "ShortName": "AMB_LocAmb_Tunnel_Water_000.wav",
        "Path": "SFX\\AMB_LocAmb_Tunnel_Water_000_755F56E2.wem"
       },
       {
        "Id": "684220241",
        "Language": "SFX",
        "ShortName": "AMB_LocAmb_Tunnel_Water_001.wav",
        "Path": "SFX\\AMB_LocAmb_Tunnel_Water_001_755F56E2.wem"
       },
       {
        "Id": "919861545",
        "Language": "SFX",
        "ShortName": "AMB_LocAmb_Tunnel_Water_004.wav",
        "Path": "SFX\\AMB_LocAmb_Tunnel_Water_004_755F56E2.wem"
       },
       {
        "Id": "964407600",
        "Language": "SFX",
        "ShortName": "AMB_LocAmb_Tunnel_Water_005.wav",
        "Path": "SFX\\AMB_LocAmb_Tunnel_Water_005_755F56E2.wem"
       }
      ]
     }
    ]
   }
  ]
 }
}