{
 "SoundBanksInfo": {
  "Platform": "Windows",
  "BasePlatform": "Windows",
  "SchemaVersion": "12",
  "SoundbankVersion": "135",
  "RootPaths": {
   "ProjectRoot": "D:\\Documents\\- ENJMIN\\- M2\\Projets\\TwinSouls\\Sessions Wwise\\WwiseUnrealExperimentation\\",
   "SourceFilesRoot": "D:\\Documents\\- ENJMIN\\- M2\\Projets\\TwinSouls\\Sessions Wwise\\WwiseUnrealExperimentation\\.cache\\Windows\\",
   "SoundBanksRoot": "D:\\Documents\\- ENJMIN\\- M2\\Projets\\TwinSouls\\Sessions Wwise\\WwiseUnrealExperimentation\\GeneratedSoundBanks\\Windows\\",
   "ExternalSourcesInputFile": "",
   "ExternalSourcesOutputRoot": "D:\\Documents\\- ENJMIN\\- M2\\Projets\\TwinSouls\\Sessions Wwise\\WwiseUnrealExperimentation\\GeneratedSoundBanks\\Windows"
  },
  "SoundBanks": [
   {
    "Id": "1054602693",
    "GUID": "{3EDBF5C5-F5C5-15C5-C5C5-C5C5C5C5C5C5}",
    "Language": "SFX",
    "Hash": "928398262",
    "ObjectPath": "\\SoundBanks\\Default Work Unit\\SB_A576E5EE3068440383DA81DEEAE6517C",
    "ShortName": "SB_A576E5EE3068440383DA81DEEAE6517C",
    "Path": "SB_A576E5EE3068440383DA81DEEAE6517C.bnk",
    "IncludedEvents": [
     {
      "Id": "2177260607",
      "Name": "Play_FOL_Box",
      "ObjectPath": "\\Events\\TEMPLATE EVENTS\\SFX EVENTS\\FOLEYS EVENTS\\Play_FOL_Box",
      "GUID": "{A576E5EE-3068-4403-83DA-81DEEAE6517C}",
      "MaxAttenuation": "5000.000000",
      "DurationType": "OneShot",
      "DurationMin": "0.200167",
      "DurationMax": "0.497438",
      "ExcludedMemoryFiles": [
       {
        "Id": "73225750",
        "Language": "SFX",
        "ShortName": "Props_Box_Hit_007.wav",
        "Path": "SFX\\Props_Box_Hit_007_755F56E2.wem"
       },
       {
        "Id": "113806789",
        "Language": "SFX",
        "ShortName": "Props_Box_Hit_004.wav",
        "Path": "SFX\\Props_Box_Hit_004_755F56E2.wem"
       },
       {
        "Id": "118786328",
        "Language": "SFX",
        "ShortName": "Props_Box_Hit_008.wav",
        "Path": "SFX\\Props_Box_Hit_008_755F56E2.wem"
       },
       {
        "Id": "137197584",
        "Language": "SFX",
        "ShortName": "Props_Box_Hit_002.wav",
        "Path": "SFX\\Props_Box_Hit_002_755F56E2.wem"
       },
       {
        "Id": "195402857",
        "Language": "SFX",
        "ShortName": "Props_Box_Hit_006.wav",
        "Path": "SFX\\Props_Box_Hit_006_755F56E2.wem"
       },
       {
        "Id": "320209725",
        "Language": "SFX",
        "ShortName": "Props_Box_Hit_012.wav",
        "Path": "SFX\\Props_Box_Hit_012_755F56E2.wem"
       },
       {
        "Id": "458868636",
        "Language": "SFX",
        "ShortName": "Props_Box_Hit_011.wav",
        "Path": "SFX\\Props_Box_Hit_011_755F56E2.wem"
       },
       {
        "Id": "669016326",
        "Language": "SFX",
        "ShortName": "Props_Box_Hit_013.wav",
        "Path": "SFX\\Props_Box_Hit_013_755F56E2.wem"
       },
       {
        "Id": "693593704",
        "Language": "SFX",
        "ShortName": "Props_Box_Hit_001.wav",
        "Path": "SFX\\Props_Box_Hit_001_755F56E2.wem"
       },
       {
        "Id": "832715471",
        "Language": "SFX",
        "ShortName": "Props_Box_Hit_000.wav",
        "Path": "SFX\\Props_Box_Hit_000_755F56E2.wem"
       },
       {
        "Id": "855048663",
        "Language": "SFX",
        "ShortName": "Props_Box_Hit_014.wav",
        "Path": "SFX\\Props_Box_Hit_014_755F56E2.wem"
       },
       {
        "Id": "865315912",
        "Language": "SFX",
        "ShortName": "Props_Box_Hit_005.wav",
        "Path": "SFX\\Props_Box_Hit_005_755F56E2.wem"
       },
       {
        "Id": "898642188",
        "Language": "SFX",
        "ShortName": "Props_Box_Hit_010.wav",
        "Path": "SFX\\Props_Box_Hit_010_755F56E2.wem"
       },
       {
        "Id": "990706252",
        "Language": "SFX",
        "ShortName": "Props_Box_Hit_003.wav",
        "Path": "SFX\\Props_Box_Hit_003_755F56E2.wem"
       }
      ],
      "AuxBusSends": [
       {
        "Id": "968522339",
        "Name": "Reflect_Basic",
        "ObjectPath": "\\Master-Mixer Hierarchy\\TEMPLATE MIX\\Master\\Auxi\\Reflect_Basic",
        "GUID": "{FDAAE3D0-F4C8-4849-AD73-80ED52554AB8}"
       }
      ]
     }
    ]
   }
  ]
 }
}