{
 "SoundBanksInfo": {
  "Platform": "Windows",
  "BasePlatform": "Windows",
  "SchemaVersion": "12",
  "SoundbankVersion": "135",
  "RootPaths": {
   "ProjectRoot": "D:\\Documents\\- ENJMIN\\- M2\\Projets\\TwinSouls\\Sessions Wwise\\WwiseUnrealExperimentation\\",
   "SourceFilesRoot": "D:\\Documents\\- ENJMIN\\- M2\\Projets\\TwinSouls\\Sessions Wwise\\WwiseUnrealExperimentation\\.cache\\Windows\\",
   "SoundBanksRoot": "D:\\Documents\\- ENJMIN\\- M2\\Projets\\TwinSouls\\Sessions Wwise\\WwiseUnrealExperimentation\\GeneratedSoundBanks\\Windows\\",
   "ExternalSourcesInputFile": "",
   "ExternalSourcesOutputRoot": "D:\\Documents\\- ENJMIN\\- M2\\Projets\\TwinSouls\\Sessions Wwise\\WwiseUnrealExperimentation\\GeneratedSoundBanks\\Windows"
  },
  "SoundBanks": [
   {
    "Id": "3091406285",
    "GUID": "{B8431DCD-1DCD-1DCD-CDCD-CDCDCDCDCDCD}",
    "Language": "SFX",
    "Hash": "2660618363",
    "ObjectPath": "\\SoundBanks\\Default Work Unit\\SB_FDAAE3D0F4C84849AD7380ED52554AB8",
    "ShortName": "SB_FDAAE3D0F4C84849AD7380ED52554AB8",
    "Path": "SB_FDAAE3D0F4C84849AD7380ED52554AB8.bnk",
    "IncludedAuxBusses": [
     {
      "Id": "968522339",
      "Name": "Reflect_Basic",
      "ObjectPath": "\\Master-Mixer Hierarchy\\TEMPLATE MIX\\Master\\Auxi\\Reflect_Basic",
      "GUID": "{FDAAE3D0-F4C8-4849-AD73-80ED52554AB8}"
     }
    ]
   }
  ]
 }
}